<svg xmlns="http://www.w3.org/2000/svg" width="16" height="16" viewBox="0 0 16 16">
    <g fill="none" fill-rule="evenodd" stroke="#333" stroke-linecap="round" stroke-linejoin="round">
        <path d="M14.5 1.5l-13 13M1.5 1.5l13 13"/>
    </g>
</svg>
